{
    "count": 1295,
    "next": "https://pokeapi.co/api/v2/pokemon-form?offset=20&limit=20",
    "previous": null,
    "results": [
        {
            "name": "bulbasaur",
            "url": "https://pokeapi.co/api/v2/pokemon-form/1/"
        },
        {
            "name": "ivysaur",
            "url": "https://pokeapi.co/api/v2/pokemon-form/2/"
        },
        {
            "name": "venusaur",
            "url": "https://pokeapi.co/api/v2/pokemon-form/3/"
        },
        {
            "name": "charmander",
            "url": "https://pokeapi.co/api/v2/pokemon-form/4/"
        },
        {
            "name": "charmeleon",
            "url": "https://pokeapi.co/api/v2/pokemon-form/5/"
        },
        {
            "name": "charizard",
            "url": "https://pokeapi.co/api/v2/pokemon-form/6/"
        },
        {
            "name": "squirtle",
            "url": "https://pokeapi.co/api/v2/pokemon-form/7/"
        },
        {
            "name": "wartortle",
            "url": "https://pokeapi.co/api/v2/pokemon-form/8/"
        },
        {
            "name": "blastoise",
            "url": "https://pokeapi.co/api/v2/pokemon-form/9/"
        },
        {
            "name": "caterpie",
            "url": "https://pokeapi.co/api/v2/pokemon-form/10/"
        },
        {
            "name": "metapod",
            "url": "https://pokeapi.co/api/v2/pokemon-form/11/"
        },
        {
            "name": "butterfree",
            "url": "https://pokeapi.co/api/v2/pokemon-form/12/"
        },
        {
            "name": "weedle",
            "url": "https://pokeapi.co/api/v2/pokemon-form/13/"
        },
        {
            "name": "kakuna",
            "url": "https://pokeapi.co/api/v2/pokemon-form/14/"
        },
        {
            "name": "beedrill",
            "url": "https://pokeapi.co/api/v2/pokemon-form/15/"
        },
        {
            "name": "pidgey",
            "url": "https://pokeapi.co/api/v2/pokemon-form/16/"
        },
        {
            "name": "pidgeotto",
            "url": "https://pokeapi.co/api/v2/pokemon-form/17/"
        },
        {
            "name": "pidgeot",
            "url": "https://pokeapi.co/api/v2/pokemon-form/18/"
        },
        {
            "name": "rattata",
            "url": "https://pokeapi.co/api/v2/pokemon-form/19/"
        },
        {
            "name": "raticate",
            "url": "https://pokeapi.co/api/v2/pokemon-form/20/"
        }
    ]
}